Tue Sep 24 20:55:42 EDT 2024
Preloading libexcabort.so
ApplicationMgr    SUCCESS 
====================================================================================================================================
                                                   Welcome to ApplicationMgr (GaudiCoreSvc v27r1p99)
                                          running on karma on Tue Sep 24 20:55:43 2024
====================================================================================================================================
ApplicationMgr       INFO Application Manager Configured successfully
CoreDumpSvc          INFO Handling signals: 11(Segmentation fault) 7(Bus error) 4(Illegal instruction) 8(Floating point exception) 14(Alarm clock) 
AthenaEventLoopMgr   INFO Initializing AthenaEventLoopMgr
ClassIDSvc           INFO getRegistryEntries: read 6380 CLIDRegistry entries for module ALL
PyComponentMgr       INFO Initializing PyComponentMgr...
LoadReadDicts        INFO Initializing LoadReadDicts...
ClassIDSvc           INFO getRegistryEntries: read 9262 CLIDRegistry entries for module ALL
PoolSvc              INFO Set connectionsvc retry/timeout/IDLE timeout to  'ConnectionRetrialPeriod':300/ 'ConnectionRetrialTimeOut':3600/ 'ConnectionTimeOut':5 seconds with connection cleanup disabled
PoolSvc              INFO Frontier compression level set to 5
DBReplicaSvc         INFO Read replica configuration from /home/sss/atlas/dvtest/build/share/dbreplica.config
DBReplicaSvc         INFO No specific match for domain found - use default fallback
DBReplicaSvc         INFO Total of 1 servers found for host karma [atlas_dd ]
PoolSvc              INFO Successfully setup replica sorting algorithm
PoolSvc              INFO Setting up APR FileCatalog and Streams
PoolSvc              INFO POOL WriteCatalog is file:xAODTestReadRename_catalog.xml
DbSession            INFO     Open     DbSession    
Domain[ROOT_All]     INFO >   Access   DbDomain     READ      [ROOT_All] 
PoolSvc              INFO File is not in Catalog! Attempt to open it anyway.
DbSession            INFO     Open     DbSession    
Domain[ROOT_All]     INFO ->  Access   DbDatabase   READ      [ROOT_All] 1AA9ED5E-1E4B-3A55-A718-0FF0FF0FF0FF
Domain[ROOT_All]     INFO                           xaoddata.root
RootDatabase.open    INFO xaoddata.root File version:63204
xaoddata.root        INFO Database being retired...
Domain[ROOT_All]     INFO ->  Deaccess DbDatabase   READ      [ROOT_All] 1AA9ED5E-1E4B-3A55-A718-0FF0FF0FF0FF
Domain[ROOT_All]     INFO >   Deaccess DbDomain     READ      [ROOT_All] 
PoolSvc              INFO File is not in Catalog! Attempt to open it anyway.
DbSession            INFO     Open     DbSession    
Domain[ROOT_All]     INFO >   Access   DbDomain     READ      [ROOT_All] 
Domain[ROOT_All]     INFO ->  Access   DbDatabase   READ      [ROOT_All] 1AA9ED5E-1E4B-3A55-A718-0FF0FF0FF0FF
Domain[ROOT_All]     INFO                           xaoddata.root
RootDatabase.open    INFO xaoddata.root File version:63204
xaoddata.root        INFO Database being retired...
Domain[ROOT_All]     INFO ->  Deaccess DbDatabase   READ      [ROOT_All] 1AA9ED5E-1E4B-3A55-A718-0FF0FF0FF0FF
Domain[ROOT_All]     INFO >   Deaccess DbDomain     READ      [ROOT_All] 
DbSession            INFO     Open     DbSession    
Domain[ROOT_All]     INFO >   Access   DbDomain     READ      [ROOT_All] 
Domain[ROOT_All]     INFO ->  Access   DbDatabase   READ      [ROOT_All] 1458DB6A-ABD2-354E-9CA6-D2B33C406B3C
Domain[ROOT_All]     INFO                           xaoddata.root
RootDatabase.open    INFO xaoddata.root File version:63204
AthenaEventLoopMgr   INFO Setup EventSelector service EventSelector
ApplicationMgr       INFO Application Manager Initialized successfully
xaoddata.root        INFO Database being retired...
Domain[ROOT_All]     INFO ->  Deaccess DbDatabase   READ      [ROOT_All] 1458DB6A-ABD2-354E-9CA6-D2B33C406B3C
Domain[ROOT_All]     INFO >   Deaccess DbDomain     READ      [ROOT_All] 
DbSession            INFO     Open     DbSession    
Domain[ROOT_All]     INFO >   Access   DbDomain     READ      [ROOT_All] 
Domain[ROOT_All]     INFO ->  Access   DbDatabase   READ      [ROOT_All] 1458DB6A-ABD2-354E-9CA6-D2B33C406B3C
Domain[ROOT_All]     INFO                           xaoddata.root
RootDatabase.open    INFO xaoddata.root File version:63204
ApplicationMgr       INFO Application Manager Started successfully
ClassIDSvc           INFO getRegistryEntries: read 458 CLIDRegistry entries for module ALL
EventP...stencySvc   INFO Added successfully Conversion service AthenaPoolCnvSvc
AlgResourcePool      INFO TopAlg list empty. Recovering the one of Application Manager
TBranc...DynReader   INFO FILE:LINE (TBranchAuxDynReader::BranchInfo& TBranchAuxDynReader::getBranchInfo(const unsigned long&, const SG::AuxStoreInternal&)): attribute 'mcEventNumber' (id=1 typename=unsigned long) has different type than the branch: ULong64_t  Marking for schema evolution.
AthenaEventLoopMgr   INFO   ===>>>  start of run 0    <<<===
AthenaEventLoopMgr   INFO   ===>>>  start processing event #1, run #0 0 events processed so far  <<<===
xAODTestReadCVec     INFO cvec_renamed aux items: aFloat anInt anInt2 cEL dInt1_renamed dVar1 
xAODTestReadCVec     INFO Type of aux store: DMTest::CAuxContainer_v1
TBranc...DynReader   INFO FILE:LINE (TBranchAuxDynReader::BranchInfo& TBranchAuxDynReader::getBranchInfo(const unsigned long&, const SG::AuxStoreInternal&)): attribute 'dVar1' (id=310 typename=float) has different type than the branch: vector<int>  Marking for schema evolution.
xAODTestReadCVec     INFO  anInt1 201 aFloat: 400 anInt2: 601 dVar1: 901 cEL: cvec_renamed[9]

xAODTestReadCVec     INFO  anInt1 202 aFloat: 400.1 anInt2: 602 dVar1: 902 cEL: cvec_renamed[8]

xAODTestReadCVec     INFO  anInt1 203 aFloat: 400.2 anInt2: 603 dVar1: 903 cEL: cvec_renamed[7]

xAODTestReadCVec     INFO  anInt1 204 aFloat: 400.3 anInt2: 604 dVar1: 904 cEL: cvec_renamed[6]

xAODTestReadCVec     INFO  anInt1 205 aFloat: 400.4 anInt2: 605 dVar1: 905 cEL: cvec_renamed[5]

xAODTestReadCVec     INFO  anInt1 206 aFloat: 400.5 anInt2: 606 dVar1: 906 cEL: cvec_renamed[4]

xAODTestReadCVec     INFO  anInt1 207 aFloat: 400.6 anInt2: 607 dVar1: 907 cEL: cvec_renamed[3]

xAODTestReadCVec     INFO  anInt1 208 aFloat: 400.7 anInt2: 608 dVar1: 908 cEL: cvec_renamed[2]

xAODTestReadCVec     INFO  anInt1 209 aFloat: 400.8 anInt2: 609 dVar1: 909 cEL: cvec_renamed[1]

xAODTestReadCVec     INFO  anInt1 210 aFloat: 400.9 anInt2: 610 dVar1: 910 cEL: cvec_renamed[0]

xAODTestReadDecor    INFO cvec_renamed.dInt1_renamed: 801 802 803 804 805 806 807 808 809 810
xAODTestReadDecor    INFO cinfo.dInt1_renamed: 6000
xAODTestReadDecor    INFO cinfo.dInt1_renamedBase: 6001
xAODTestReadDecor    INFO cinfo.dInt1_renamed: 6000
AthenaEventLoopMgr   INFO   ===>>>  done processing event #1, run #0 1 events processed so far  <<<===
ClassIDSvc           INFO getRegistryEntries: read 115 CLIDRegistry entries for module ALL
AthenaEventLoopMgr   INFO   ===>>>  start processing event #2, run #0 1 events processed so far  <<<===
xAODTestReadCVec     INFO cvec_renamed aux items: aFloat anInt anInt2 cEL dInt1_renamed dVar1 
xAODTestReadCVec     INFO Type of aux store: DMTest::CAuxContainer_v1
xAODTestReadCVec     INFO  anInt1 301 aFloat: 600 anInt2: 901 dVar1: 1351 cEL: cvec_renamed[9]

xAODTestReadCVec     INFO  anInt1 302 aFloat: 600.1 anInt2: 902 dVar1: 1352 cEL: cvec_renamed[8]

xAODTestReadCVec     INFO  anInt1 303 aFloat: 600.2 anInt2: 903 dVar1: 1353 cEL: cvec_renamed[7]

xAODTestReadCVec     INFO  anInt1 304 aFloat: 600.3 anInt2: 904 dVar1: 1354 cEL: cvec_renamed[6]

xAODTestReadCVec     INFO  anInt1 305 aFloat: 600.4 anInt2: 905 dVar1: 1355 cEL: cvec_renamed[5]

xAODTestReadCVec     INFO  anInt1 306 aFloat: 600.5 anInt2: 906 dVar1: 1356 cEL: cvec_renamed[4]

xAODTestReadCVec     INFO  anInt1 307 aFloat: 600.6 anInt2: 907 dVar1: 1357 cEL: cvec_renamed[3]

xAODTestReadCVec     INFO  anInt1 308 aFloat: 600.7 anInt2: 908 dVar1: 1358 cEL: cvec_renamed[2]

xAODTestReadCVec     INFO  anInt1 309 aFloat: 600.8 anInt2: 909 dVar1: 1359 cEL: cvec_renamed[1]

xAODTestReadCVec     INFO  anInt1 310 aFloat: 600.9 anInt2: 910 dVar1: 1360 cEL: cvec_renamed[0]

xAODTestReadDecor    INFO cvec_renamed.dInt1_renamed: 1201 1202 1203 1204 1205 1206 1207 1208 1209 1210
xAODTestReadDecor    INFO cinfo.dInt1_renamed: 9000
xAODTestReadDecor    INFO cinfo.dInt1_renamedBase: 9001
xAODTestReadDecor    INFO cinfo.dInt1_renamed: 9000
AthenaEventLoopMgr   INFO   ===>>>  done processing event #2, run #0 2 events processed so far  <<<===
AthenaEventLoopMgr   INFO   ===>>>  start processing event #3, run #0 2 events processed so far  <<<===
xAODTestReadCVec     INFO cvec_renamed aux items: aFloat anInt anInt2 cEL dInt1_renamed dVar1 
xAODTestReadCVec     INFO Type of aux store: DMTest::CAuxContainer_v1
xAODTestReadCVec     INFO  anInt1 401 aFloat: 800 anInt2: 1201 dVar1: 1801 cEL: cvec_renamed[9]

xAODTestReadCVec     INFO  anInt1 402 aFloat: 800.1 anInt2: 1202 dVar1: 1802 cEL: cvec_renamed[8]

xAODTestReadCVec     INFO  anInt1 403 aFloat: 800.2 anInt2: 1203 dVar1: 1803 cEL: cvec_renamed[7]

xAODTestReadCVec     INFO  anInt1 404 aFloat: 800.3 anInt2: 1204 dVar1: 1804 cEL: cvec_renamed[6]

xAODTestReadCVec     INFO  anInt1 405 aFloat: 800.4 anInt2: 1205 dVar1: 1805 cEL: cvec_renamed[5]

xAODTestReadCVec     INFO  anInt1 406 aFloat: 800.5 anInt2: 1206 dVar1: 1806 cEL: cvec_renamed[4]

xAODTestReadCVec     INFO  anInt1 407 aFloat: 800.6 anInt2: 1207 dVar1: 1807 cEL: cvec_renamed[3]

xAODTestReadCVec     INFO  anInt1 408 aFloat: 800.7 anInt2: 1208 dVar1: 1808 cEL: cvec_renamed[2]

xAODTestReadCVec     INFO  anInt1 409 aFloat: 800.8 anInt2: 1209 dVar1: 1809 cEL: cvec_renamed[1]

xAODTestReadCVec     INFO  anInt1 410 aFloat: 800.9 anInt2: 1210 dVar1: 1810 cEL: cvec_renamed[0]

xAODTestReadDecor    INFO cvec_renamed.dInt1_renamed: 1601 1602 1603 1604 1605 1606 1607 1608 1609 1610
xAODTestReadDecor    INFO cinfo.dInt1_renamed: 12000
xAODTestReadDecor    INFO cinfo.dInt1_renamedBase: 12001
xAODTestReadDecor    INFO cinfo.dInt1_renamed: 12000
AthenaEventLoopMgr   INFO   ===>>>  done processing event #3, run #0 3 events processed so far  <<<===
AthenaEventLoopMgr   INFO   ===>>>  start processing event #4, run #0 3 events processed so far  <<<===
xAODTestReadCVec     INFO cvec_renamed aux items: aFloat anInt anInt2 cEL dInt1_renamed dVar1 
xAODTestReadCVec     INFO Type of aux store: DMTest::CAuxContainer_v1
xAODTestReadDecor    INFO cvec_renamed.dInt1_renamed:
xAODTestReadDecor    INFO cinfo.dInt1_renamed: 15000
xAODTestReadDecor    INFO cinfo.dInt1_renamedBase: 15001
xAODTestReadDecor    INFO cinfo.dInt1_renamed: 15000
AthenaEventLoopMgr   INFO   ===>>>  done processing event #4, run #0 4 events processed so far  <<<===
AthenaEventLoopMgr   INFO   ===>>>  start processing event #5, run #0 4 events processed so far  <<<===
xAODTestReadCVec     INFO cvec_renamed aux items: aFloat anInt anInt2 cEL dInt1_renamed dVar1 
xAODTestReadCVec     INFO Type of aux store: DMTest::CAuxContainer_v1
xAODTestReadCVec     INFO  anInt1 601 aFloat: 1200 anInt2: 1801 dVar1: 2701 cEL: cvec_renamed[9]

xAODTestReadCVec     INFO  anInt1 602 aFloat: 1200.1 anInt2: 1802 dVar1: 2702 cEL: cvec_renamed[8]

xAODTestReadCVec     INFO  anInt1 603 aFloat: 1200.2 anInt2: 1803 dVar1: 2703 cEL: cvec_renamed[7]

xAODTestReadCVec     INFO  anInt1 604 aFloat: 1200.3 anInt2: 1804 dVar1: 2704 cEL: cvec_renamed[6]

xAODTestReadCVec     INFO  anInt1 605 aFloat: 1200.4 anInt2: 1805 dVar1: 2705 cEL: cvec_renamed[5]

xAODTestReadCVec     INFO  anInt1 606 aFloat: 1200.5 anInt2: 1806 dVar1: 2706 cEL: cvec_renamed[4]

xAODTestReadCVec     INFO  anInt1 607 aFloat: 1200.6 anInt2: 1807 dVar1: 2707 cEL: cvec_renamed[3]

xAODTestReadCVec     INFO  anInt1 608 aFloat: 1200.7 anInt2: 1808 dVar1: 2708 cEL: cvec_renamed[2]

xAODTestReadCVec     INFO  anInt1 609 aFloat: 1200.8 anInt2: 1809 dVar1: 2709 cEL: cvec_renamed[1]

xAODTestReadCVec     INFO  anInt1 610 aFloat: 1200.9 anInt2: 1810 dVar1: 2710 cEL: cvec_renamed[0]

xAODTestReadDecor    INFO cvec_renamed.dInt1_renamed: 2401 2402 2403 2404 2405 2406 2407 2408 2409 2410
xAODTestReadDecor    INFO cinfo.dInt1_renamed: 18000
xAODTestReadDecor    INFO cinfo.dInt1_renamedBase: 18001
xAODTestReadDecor    INFO cinfo.dInt1_renamed: 18000
AthenaEventLoopMgr   INFO   ===>>>  done processing event #5, run #0 5 events processed so far  <<<===
AthenaEventLoopMgr   INFO   ===>>>  start processing event #6, run #0 5 events processed so far  <<<===
xAODTestReadCVec     INFO cvec_renamed aux items: aFloat anInt anInt2 cEL dInt1_renamed dVar1 
xAODTestReadCVec     INFO Type of aux store: DMTest::CAuxContainer_v1
xAODTestReadCVec     INFO  anInt1 701 aFloat: 1400 anInt2: 2101 dVar1: 3151 cEL: cvec_renamed[9]

xAODTestReadCVec     INFO  anInt1 702 aFloat: 1400.1 anInt2: 2102 dVar1: 3152 cEL: cvec_renamed[8]

xAODTestReadCVec     INFO  anInt1 703 aFloat: 1400.2 anInt2: 2103 dVar1: 3153 cEL: cvec_renamed[7]

xAODTestReadCVec     INFO  anInt1 704 aFloat: 1400.3 anInt2: 2104 dVar1: 3154 cEL: cvec_renamed[6]

xAODTestReadCVec     INFO  anInt1 705 aFloat: 1400.4 anInt2: 2105 dVar1: 3155 cEL: cvec_renamed[5]

xAODTestReadCVec     INFO  anInt1 706 aFloat: 1400.5 anInt2: 2106 dVar1: 3156 cEL: cvec_renamed[4]

xAODTestReadCVec     INFO  anInt1 707 aFloat: 1400.6 anInt2: 2107 dVar1: 3157 cEL: cvec_renamed[3]

xAODTestReadCVec     INFO  anInt1 708 aFloat: 1400.7 anInt2: 2108 dVar1: 3158 cEL: cvec_renamed[2]

xAODTestReadCVec     INFO  anInt1 709 aFloat: 1400.8 anInt2: 2109 dVar1: 3159 cEL: cvec_renamed[1]

xAODTestReadCVec     INFO  anInt1 710 aFloat: 1400.9 anInt2: 2110 dVar1: 3160 cEL: cvec_renamed[0]

xAODTestReadDecor    INFO cvec_renamed.dInt1_renamed: 2801 2802 2803 2804 2805 2806 2807 2808 2809 2810
xAODTestReadDecor    INFO cinfo.dInt1_renamed: 21000
xAODTestReadDecor    INFO cinfo.dInt1_renamedBase: 21001
xAODTestReadDecor    INFO cinfo.dInt1_renamed: 21000
AthenaEventLoopMgr   INFO   ===>>>  done processing event #6, run #0 6 events processed so far  <<<===
AthenaEventLoopMgr   INFO   ===>>>  start processing event #7, run #0 6 events processed so far  <<<===
xAODTestReadCVec     INFO cvec_renamed aux items: aFloat anInt anInt2 cEL dInt1_renamed dVar1 
xAODTestReadCVec     INFO Type of aux store: DMTest::CAuxContainer_v1
xAODTestReadCVec     INFO  anInt1 801 aFloat: 1600 anInt2: 2401 dVar1: 3601 cEL: cvec_renamed[9]

xAODTestReadCVec     INFO  anInt1 802 aFloat: 1600.1 anInt2: 2402 dVar1: 3602 cEL: cvec_renamed[8]

xAODTestReadCVec     INFO  anInt1 803 aFloat: 1600.2 anInt2: 2403 dVar1: 3603 cEL: cvec_renamed[7]

xAODTestReadCVec     INFO  anInt1 804 aFloat: 1600.3 anInt2: 2404 dVar1: 3604 cEL: cvec_renamed[6]

xAODTestReadCVec     INFO  anInt1 805 aFloat: 1600.4 anInt2: 2405 dVar1: 3605 cEL: cvec_renamed[5]

xAODTestReadCVec     INFO  anInt1 806 aFloat: 1600.5 anInt2: 2406 dVar1: 3606 cEL: cvec_renamed[4]

xAODTestReadCVec     INFO  anInt1 807 aFloat: 1600.6 anInt2: 2407 dVar1: 3607 cEL: cvec_renamed[3]

xAODTestReadCVec     INFO  anInt1 808 aFloat: 1600.7 anInt2: 2408 dVar1: 3608 cEL: cvec_renamed[2]

xAODTestReadCVec     INFO  anInt1 809 aFloat: 1600.8 anInt2: 2409 dVar1: 3609 cEL: cvec_renamed[1]

xAODTestReadCVec     INFO  anInt1 810 aFloat: 1600.9 anInt2: 2410 dVar1: 3610 cEL: cvec_renamed[0]

xAODTestReadDecor    INFO cvec_renamed.dInt1_renamed: 3201 3202 3203 3204 3205 3206 3207 3208 3209 3210
xAODTestReadDecor    INFO cinfo.dInt1_renamed: 24000
xAODTestReadDecor    INFO cinfo.dInt1_renamedBase: 24001
xAODTestReadDecor    INFO cinfo.dInt1_renamed: 24000
AthenaEventLoopMgr   INFO   ===>>>  done processing event #7, run #0 7 events processed so far  <<<===
AthenaEventLoopMgr   INFO   ===>>>  start processing event #8, run #0 7 events processed so far  <<<===
xAODTestReadCVec     INFO cvec_renamed aux items: aFloat anInt anInt2 cEL dInt1_renamed dVar1 
xAODTestReadCVec     INFO Type of aux store: DMTest::CAuxContainer_v1
xAODTestReadCVec     INFO  anInt1 901 aFloat: 1800 anInt2: 2701 dVar1: 4051 cEL: cvec_renamed[9]

xAODTestReadCVec     INFO  anInt1 902 aFloat: 1800.1 anInt2: 2702 dVar1: 4052 cEL: cvec_renamed[8]

xAODTestReadCVec     INFO  anInt1 903 aFloat: 1800.2 anInt2: 2703 dVar1: 4053 cEL: cvec_renamed[7]

xAODTestReadCVec     INFO  anInt1 904 aFloat: 1800.3 anInt2: 2704 dVar1: 4054 cEL: cvec_renamed[6]

xAODTestReadCVec     INFO  anInt1 905 aFloat: 1800.4 anInt2: 2705 dVar1: 4055 cEL: cvec_renamed[5]

xAODTestReadCVec     INFO  anInt1 906 aFloat: 1800.5 anInt2: 2706 dVar1: 4056 cEL: cvec_renamed[4]

xAODTestReadCVec     INFO  anInt1 907 aFloat: 1800.6 anInt2: 2707 dVar1: 4057 cEL: cvec_renamed[3]

xAODTestReadCVec     INFO  anInt1 908 aFloat: 1800.7 anInt2: 2708 dVar1: 4058 cEL: cvec_renamed[2]

xAODTestReadCVec     INFO  anInt1 909 aFloat: 1800.8 anInt2: 2709 dVar1: 4059 cEL: cvec_renamed[1]

xAODTestReadCVec     INFO  anInt1 910 aFloat: 1800.9 anInt2: 2710 dVar1: 4060 cEL: cvec_renamed[0]

xAODTestReadDecor    INFO cvec_renamed.dInt1_renamed: 3601 3602 3603 3604 3605 3606 3607 3608 3609 3610
xAODTestReadDecor    INFO cinfo.dInt1_renamed: 27000
xAODTestReadDecor    INFO cinfo.dInt1_renamedBase: 27001
xAODTestReadDecor    INFO cinfo.dInt1_renamed: 27000
AthenaEventLoopMgr   INFO   ===>>>  done processing event #8, run #0 8 events processed so far  <<<===
AthenaEventLoopMgr   INFO   ===>>>  start processing event #9, run #0 8 events processed so far  <<<===
xAODTestReadCVec     INFO cvec_renamed aux items: aFloat anInt anInt2 cEL dInt1_renamed dVar1 
xAODTestReadCVec     INFO Type of aux store: DMTest::CAuxContainer_v1
xAODTestReadCVec     INFO  anInt1 1001 aFloat: 2000 anInt2: 3001 dVar1: 4501 cEL: cvec_renamed[9]

xAODTestReadCVec     INFO  anInt1 1002 aFloat: 2000.1 anInt2: 3002 dVar1: 4502 cEL: cvec_renamed[8]

xAODTestReadCVec     INFO  anInt1 1003 aFloat: 2000.2 anInt2: 3003 dVar1: 4503 cEL: cvec_renamed[7]

xAODTestReadCVec     INFO  anInt1 1004 aFloat: 2000.3 anInt2: 3004 dVar1: 4504 cEL: cvec_renamed[6]

xAODTestReadCVec     INFO  anInt1 1005 aFloat: 2000.4 anInt2: 3005 dVar1: 4505 cEL: cvec_renamed[5]

xAODTestReadCVec     INFO  anInt1 1006 aFloat: 2000.5 anInt2: 3006 dVar1: 4506 cEL: cvec_renamed[4]

xAODTestReadCVec     INFO  anInt1 1007 aFloat: 2000.6 anInt2: 3007 dVar1: 4507 cEL: cvec_renamed[3]

xAODTestReadCVec     INFO  anInt1 1008 aFloat: 2000.7 anInt2: 3008 dVar1: 4508 cEL: cvec_renamed[2]

xAODTestReadCVec     INFO  anInt1 1009 aFloat: 2000.8 anInt2: 3009 dVar1: 4509 cEL: cvec_renamed[1]

xAODTestReadCVec     INFO  anInt1 1010 aFloat: 2000.9 anInt2: 3010 dVar1: 4510 cEL: cvec_renamed[0]

xAODTestReadDecor    INFO cvec_renamed.dInt1_renamed: 4001 4002 4003 4004 4005 4006 4007 4008 4009 4010
xAODTestReadDecor    INFO cinfo.dInt1_renamed: 30000
xAODTestReadDecor    INFO cinfo.dInt1_renamedBase: 30001
xAODTestReadDecor    INFO cinfo.dInt1_renamed: 30000
AthenaEventLoopMgr   INFO   ===>>>  done processing event #9, run #0 9 events processed so far  <<<===
AthenaEventLoopMgr   INFO   ===>>>  start processing event #10, run #0 9 events processed so far  <<<===
xAODTestReadCVec     INFO cvec_renamed aux items: aFloat anInt anInt2 cEL dInt1_renamed dVar1 
xAODTestReadCVec     INFO Type of aux store: DMTest::CAuxContainer_v1
xAODTestReadCVec     INFO  anInt1 1101 aFloat: 2200 anInt2: 3301 dVar1: 4951 cEL: cvec_renamed[9]

xAODTestReadCVec     INFO  anInt1 1102 aFloat: 2200.1 anInt2: 3302 dVar1: 4952 cEL: cvec_renamed[8]

xAODTestReadCVec     INFO  anInt1 1103 aFloat: 2200.2 anInt2: 3303 dVar1: 4953 cEL: cvec_renamed[7]

xAODTestReadCVec     INFO  anInt1 1104 aFloat: 2200.3 anInt2: 3304 dVar1: 4954 cEL: cvec_renamed[6]

xAODTestReadCVec     INFO  anInt1 1105 aFloat: 2200.4 anInt2: 3305 dVar1: 4955 cEL: cvec_renamed[5]

xAODTestReadCVec     INFO  anInt1 1106 aFloat: 2200.5 anInt2: 3306 dVar1: 4956 cEL: cvec_renamed[4]

xAODTestReadCVec     INFO  anInt1 1107 aFloat: 2200.6 anInt2: 3307 dVar1: 4957 cEL: cvec_renamed[3]

xAODTestReadCVec     INFO  anInt1 1108 aFloat: 2200.7 anInt2: 3308 dVar1: 4958 cEL: cvec_renamed[2]

xAODTestReadCVec     INFO  anInt1 1109 aFloat: 2200.8 anInt2: 3309 dVar1: 4959 cEL: cvec_renamed[1]

xAODTestReadCVec     INFO  anInt1 1110 aFloat: 2200.9 anInt2: 3310 dVar1: 4960 cEL: cvec_renamed[0]

xAODTestReadDecor    INFO cvec_renamed.dInt1_renamed: 4401 4402 4403 4404 4405 4406 4407 4408 4409 4410
xAODTestReadDecor    INFO cinfo.dInt1_renamed: 33000
xAODTestReadDecor    INFO cinfo.dInt1_renamedBase: 33001
xAODTestReadDecor    INFO cinfo.dInt1_renamed: 33000
AthenaEventLoopMgr   INFO   ===>>>  done processing event #10, run #0 10 events processed so far  <<<===
AthenaEventLoopMgr   INFO   ===>>>  start processing event #11, run #0 10 events processed so far  <<<===
xAODTestReadCVec     INFO cvec_renamed aux items: aFloat anInt anInt2 cEL dInt1_renamed dVar1 
xAODTestReadCVec     INFO Type of aux store: DMTest::CAuxContainer_v1
xAODTestReadCVec     INFO  anInt1 1201 aFloat: 2400 anInt2: 3601 dVar1: 5401 cEL: cvec_renamed[9]

xAODTestReadCVec     INFO  anInt1 1202 aFloat: 2400.1 anInt2: 3602 dVar1: 5402 cEL: cvec_renamed[8]

xAODTestReadCVec     INFO  anInt1 1203 aFloat: 2400.2 anInt2: 3603 dVar1: 5403 cEL: cvec_renamed[7]

xAODTestReadCVec     INFO  anInt1 1204 aFloat: 2400.3 anInt2: 3604 dVar1: 5404 cEL: cvec_renamed[6]

xAODTestReadCVec     INFO  anInt1 1205 aFloat: 2400.4 anInt2: 3605 dVar1: 5405 cEL: cvec_renamed[5]

xAODTestReadCVec     INFO  anInt1 1206 aFloat: 2400.5 anInt2: 3606 dVar1: 5406 cEL: cvec_renamed[4]

xAODTestReadCVec     INFO  anInt1 1207 aFloat: 2400.6 anInt2: 3607 dVar1: 5407 cEL: cvec_renamed[3]

xAODTestReadCVec     INFO  anInt1 1208 aFloat: 2400.7 anInt2: 3608 dVar1: 5408 cEL: cvec_renamed[2]

xAODTestReadCVec     INFO  anInt1 1209 aFloat: 2400.8 anInt2: 3609 dVar1: 5409 cEL: cvec_renamed[1]

xAODTestReadCVec     INFO  anInt1 1210 aFloat: 2400.9 anInt2: 3610 dVar1: 5410 cEL: cvec_renamed[0]

xAODTestReadDecor    INFO cvec_renamed.dInt1_renamed: 4801 4802 4803 4804 4805 4806 4807 4808 4809 4810
xAODTestReadDecor    INFO cinfo.dInt1_renamed: 36000
xAODTestReadDecor    INFO cinfo.dInt1_renamedBase: 36001
xAODTestReadDecor    INFO cinfo.dInt1_renamed: 36000
AthenaEventLoopMgr   INFO   ===>>>  done processing event #11, run #0 11 events processed so far  <<<===
AthenaEventLoopMgr   INFO   ===>>>  start processing event #12, run #0 11 events processed so far  <<<===
xAODTestReadCVec     INFO cvec_renamed aux items: aFloat anInt anInt2 cEL dInt1_renamed dVar1 
xAODTestReadCVec     INFO Type of aux store: DMTest::CAuxContainer_v1
xAODTestReadCVec     INFO  anInt1 1301 aFloat: 2600 anInt2: 3901 dVar1: 5851 cEL: cvec_renamed[9]

xAODTestReadCVec     INFO  anInt1 1302 aFloat: 2600.1 anInt2: 3902 dVar1: 5852 cEL: cvec_renamed[8]

xAODTestReadCVec     INFO  anInt1 1303 aFloat: 2600.2 anInt2: 3903 dVar1: 5853 cEL: cvec_renamed[7]

xAODTestReadCVec     INFO  anInt1 1304 aFloat: 2600.3 anInt2: 3904 dVar1: 5854 cEL: cvec_renamed[6]

xAODTestReadCVec     INFO  anInt1 1305 aFloat: 2600.4 anInt2: 3905 dVar1: 5855 cEL: cvec_renamed[5]

xAODTestReadCVec     INFO  anInt1 1306 aFloat: 2600.5 anInt2: 3906 dVar1: 5856 cEL: cvec_renamed[4]

xAODTestReadCVec     INFO  anInt1 1307 aFloat: 2600.6 anInt2: 3907 dVar1: 5857 cEL: cvec_renamed[3]

xAODTestReadCVec     INFO  anInt1 1308 aFloat: 2600.7 anInt2: 3908 dVar1: 5858 cEL: cvec_renamed[2]

xAODTestReadCVec     INFO  anInt1 1309 aFloat: 2600.8 anInt2: 3909 dVar1: 5859 cEL: cvec_renamed[1]

xAODTestReadCVec     INFO  anInt1 1310 aFloat: 2600.9 anInt2: 3910 dVar1: 5860 cEL: cvec_renamed[0]

xAODTestReadDecor    INFO cvec_renamed.dInt1_renamed: 5201 5202 5203 5204 5205 5206 5207 5208 5209 5210
xAODTestReadDecor    INFO cinfo.dInt1_renamed: 39000
xAODTestReadDecor    INFO cinfo.dInt1_renamedBase: 39001
xAODTestReadDecor    INFO cinfo.dInt1_renamed: 39000
AthenaEventLoopMgr   INFO   ===>>>  done processing event #12, run #0 12 events processed so far  <<<===
AthenaEventLoopMgr   INFO   ===>>>  start processing event #13, run #0 12 events processed so far  <<<===
xAODTestReadCVec     INFO cvec_renamed aux items: aFloat anInt anInt2 cEL dInt1_renamed dVar1 
xAODTestReadCVec     INFO Type of aux store: DMTest::CAuxContainer_v1
xAODTestReadCVec     INFO  anInt1 1401 aFloat: 2800 anInt2: 4201 dVar1: 6301 cEL: cvec_renamed[9]

xAODTestReadCVec     INFO  anInt1 1402 aFloat: 2800.1 anInt2: 4202 dVar1: 6302 cEL: cvec_renamed[8]

xAODTestReadCVec     INFO  anInt1 1403 aFloat: 2800.2 anInt2: 4203 dVar1: 6303 cEL: cvec_renamed[7]

xAODTestReadCVec     INFO  anInt1 1404 aFloat: 2800.3 anInt2: 4204 dVar1: 6304 cEL: cvec_renamed[6]

xAODTestReadCVec     INFO  anInt1 1405 aFloat: 2800.4 anInt2: 4205 dVar1: 6305 cEL: cvec_renamed[5]

xAODTestReadCVec     INFO  anInt1 1406 aFloat: 2800.5 anInt2: 4206 dVar1: 6306 cEL: cvec_renamed[4]

xAODTestReadCVec     INFO  anInt1 1407 aFloat: 2800.6 anInt2: 4207 dVar1: 6307 cEL: cvec_renamed[3]

xAODTestReadCVec     INFO  anInt1 1408 aFloat: 2800.7 anInt2: 4208 dVar1: 6308 cEL: cvec_renamed[2]

xAODTestReadCVec     INFO  anInt1 1409 aFloat: 2800.8 anInt2: 4209 dVar1: 6309 cEL: cvec_renamed[1]

xAODTestReadCVec     INFO  anInt1 1410 aFloat: 2800.9 anInt2: 4210 dVar1: 6310 cEL: cvec_renamed[0]

xAODTestReadDecor    INFO cvec_renamed.dInt1_renamed: 5601 5602 5603 5604 5605 5606 5607 5608 5609 5610
xAODTestReadDecor    INFO cinfo.dInt1_renamed: 42000
xAODTestReadDecor    INFO cinfo.dInt1_renamedBase: 42001
xAODTestReadDecor    INFO cinfo.dInt1_renamed: 42000
AthenaEventLoopMgr   INFO   ===>>>  done processing event #13, run #0 13 events processed so far  <<<===
AthenaEventLoopMgr   INFO   ===>>>  start processing event #14, run #0 13 events processed so far  <<<===
xAODTestReadCVec     INFO cvec_renamed aux items: aFloat anInt anInt2 cEL dInt1_renamed dVar1 
xAODTestReadCVec     INFO Type of aux store: DMTest::CAuxContainer_v1
xAODTestReadCVec     INFO  anInt1 1501 aFloat: 3000 anInt2: 4501 dVar1: 6751 cEL: cvec_renamed[9]

xAODTestReadCVec     INFO  anInt1 1502 aFloat: 3000.1 anInt2: 4502 dVar1: 6752 cEL: cvec_renamed[8]

xAODTestReadCVec     INFO  anInt1 1503 aFloat: 3000.2 anInt2: 4503 dVar1: 6753 cEL: cvec_renamed[7]

xAODTestReadCVec     INFO  anInt1 1504 aFloat: 3000.3 anInt2: 4504 dVar1: 6754 cEL: cvec_renamed[6]

xAODTestReadCVec     INFO  anInt1 1505 aFloat: 3000.4 anInt2: 4505 dVar1: 6755 cEL: cvec_renamed[5]

xAODTestReadCVec     INFO  anInt1 1506 aFloat: 3000.5 anInt2: 4506 dVar1: 6756 cEL: cvec_renamed[4]

xAODTestReadCVec     INFO  anInt1 1507 aFloat: 3000.6 anInt2: 4507 dVar1: 6757 cEL: cvec_renamed[3]

xAODTestReadCVec     INFO  anInt1 1508 aFloat: 3000.7 anInt2: 4508 dVar1: 6758 cEL: cvec_renamed[2]

xAODTestReadCVec     INFO  anInt1 1509 aFloat: 3000.8 anInt2: 4509 dVar1: 6759 cEL: cvec_renamed[1]

xAODTestReadCVec     INFO  anInt1 1510 aFloat: 3000.9 anInt2: 4510 dVar1: 6760 cEL: cvec_renamed[0]

xAODTestReadDecor    INFO cvec_renamed.dInt1_renamed: 6001 6002 6003 6004 6005 6006 6007 6008 6009 6010
xAODTestReadDecor    INFO cinfo.dInt1_renamed: 45000
xAODTestReadDecor    INFO cinfo.dInt1_renamedBase: 45001
xAODTestReadDecor    INFO cinfo.dInt1_renamed: 45000
AthenaEventLoopMgr   INFO   ===>>>  done processing event #14, run #0 14 events processed so far  <<<===
AthenaEventLoopMgr   INFO   ===>>>  start processing event #15, run #0 14 events processed so far  <<<===
xAODTestReadCVec     INFO cvec_renamed aux items: aFloat anInt anInt2 cEL dInt1_renamed dVar1 
xAODTestReadCVec     INFO Type of aux store: DMTest::CAuxContainer_v1
xAODTestReadCVec     INFO  anInt1 1601 aFloat: 3200 anInt2: 4801 dVar1: 7201 cEL: cvec_renamed[9]

xAODTestReadCVec     INFO  anInt1 1602 aFloat: 3200.1 anInt2: 4802 dVar1: 7202 cEL: cvec_renamed[8]

xAODTestReadCVec     INFO  anInt1 1603 aFloat: 3200.2 anInt2: 4803 dVar1: 7203 cEL: cvec_renamed[7]

xAODTestReadCVec     INFO  anInt1 1604 aFloat: 3200.3 anInt2: 4804 dVar1: 7204 cEL: cvec_renamed[6]

xAODTestReadCVec     INFO  anInt1 1605 aFloat: 3200.4 anInt2: 4805 dVar1: 7205 cEL: cvec_renamed[5]

xAODTestReadCVec     INFO  anInt1 1606 aFloat: 3200.5 anInt2: 4806 dVar1: 7206 cEL: cvec_renamed[4]

xAODTestReadCVec     INFO  anInt1 1607 aFloat: 3200.6 anInt2: 4807 dVar1: 7207 cEL: cvec_renamed[3]

xAODTestReadCVec     INFO  anInt1 1608 aFloat: 3200.7 anInt2: 4808 dVar1: 7208 cEL: cvec_renamed[2]

xAODTestReadCVec     INFO  anInt1 1609 aFloat: 3200.8 anInt2: 4809 dVar1: 7209 cEL: cvec_renamed[1]

xAODTestReadCVec     INFO  anInt1 1610 aFloat: 3200.9 anInt2: 4810 dVar1: 7210 cEL: cvec_renamed[0]

xAODTestReadDecor    INFO cvec_renamed.dInt1_renamed: 6401 6402 6403 6404 6405 6406 6407 6408 6409 6410
xAODTestReadDecor    INFO cinfo.dInt1_renamed: 48000
xAODTestReadDecor    INFO cinfo.dInt1_renamedBase: 48001
xAODTestReadDecor    INFO cinfo.dInt1_renamed: 48000
AthenaEventLoopMgr   INFO   ===>>>  done processing event #15, run #0 15 events processed so far  <<<===
AthenaEventLoopMgr   INFO   ===>>>  start processing event #16, run #0 15 events processed so far  <<<===
xAODTestReadCVec     INFO cvec_renamed aux items: aFloat anInt anInt2 cEL dInt1_renamed dVar1 
xAODTestReadCVec     INFO Type of aux store: DMTest::CAuxContainer_v1
xAODTestReadCVec     INFO  anInt1 1701 aFloat: 3400 anInt2: 5101 dVar1: 7651 cEL: cvec_renamed[9]

xAODTestReadCVec     INFO  anInt1 1702 aFloat: 3400.1 anInt2: 5102 dVar1: 7652 cEL: cvec_renamed[8]

xAODTestReadCVec     INFO  anInt1 1703 aFloat: 3400.2 anInt2: 5103 dVar1: 7653 cEL: cvec_renamed[7]

xAODTestReadCVec     INFO  anInt1 1704 aFloat: 3400.3 anInt2: 5104 dVar1: 7654 cEL: cvec_renamed[6]

xAODTestReadCVec     INFO  anInt1 1705 aFloat: 3400.4 anInt2: 5105 dVar1: 7655 cEL: cvec_renamed[5]

xAODTestReadCVec     INFO  anInt1 1706 aFloat: 3400.5 anInt2: 5106 dVar1: 7656 cEL: cvec_renamed[4]

xAODTestReadCVec     INFO  anInt1 1707 aFloat: 3400.6 anInt2: 5107 dVar1: 7657 cEL: cvec_renamed[3]

xAODTestReadCVec     INFO  anInt1 1708 aFloat: 3400.7 anInt2: 5108 dVar1: 7658 cEL: cvec_renamed[2]

xAODTestReadCVec     INFO  anInt1 1709 aFloat: 3400.8 anInt2: 5109 dVar1: 7659 cEL: cvec_renamed[1]

xAODTestReadCVec     INFO  anInt1 1710 aFloat: 3400.9 anInt2: 5110 dVar1: 7660 cEL: cvec_renamed[0]

xAODTestReadDecor    INFO cvec_renamed.dInt1_renamed: 6801 6802 6803 6804 6805 6806 6807 6808 6809 6810
xAODTestReadDecor    INFO cinfo.dInt1_renamed: 51000
xAODTestReadDecor    INFO cinfo.dInt1_renamedBase: 51001
xAODTestReadDecor    INFO cinfo.dInt1_renamed: 51000
AthenaEventLoopMgr   INFO   ===>>>  done processing event #16, run #0 16 events processed so far  <<<===
AthenaEventLoopMgr   INFO   ===>>>  start processing event #17, run #0 16 events processed so far  <<<===
xAODTestReadCVec     INFO cvec_renamed aux items: aFloat anInt anInt2 cEL dInt1_renamed dVar1 
xAODTestReadCVec     INFO Type of aux store: DMTest::CAuxContainer_v1
xAODTestReadCVec     INFO  anInt1 1801 aFloat: 3600 anInt2: 5401 dVar1: 8101 cEL: cvec_renamed[9]

xAODTestReadCVec     INFO  anInt1 1802 aFloat: 3600.1 anInt2: 5402 dVar1: 8102 cEL: cvec_renamed[8]

xAODTestReadCVec     INFO  anInt1 1803 aFloat: 3600.2 anInt2: 5403 dVar1: 8103 cEL: cvec_renamed[7]

xAODTestReadCVec     INFO  anInt1 1804 aFloat: 3600.3 anInt2: 5404 dVar1: 8104 cEL: cvec_renamed[6]

xAODTestReadCVec     INFO  anInt1 1805 aFloat: 3600.4 anInt2: 5405 dVar1: 8105 cEL: cvec_renamed[5]

xAODTestReadCVec     INFO  anInt1 1806 aFloat: 3600.5 anInt2: 5406 dVar1: 8106 cEL: cvec_renamed[4]

xAODTestReadCVec     INFO  anInt1 1807 aFloat: 3600.6 anInt2: 5407 dVar1: 8107 cEL: cvec_renamed[3]

xAODTestReadCVec     INFO  anInt1 1808 aFloat: 3600.7 anInt2: 5408 dVar1: 8108 cEL: cvec_renamed[2]

xAODTestReadCVec     INFO  anInt1 1809 aFloat: 3600.8 anInt2: 5409 dVar1: 8109 cEL: cvec_renamed[1]

xAODTestReadCVec     INFO  anInt1 1810 aFloat: 3600.9 anInt2: 5410 dVar1: 8110 cEL: cvec_renamed[0]

xAODTestReadDecor    INFO cvec_renamed.dInt1_renamed: 7201 7202 7203 7204 7205 7206 7207 7208 7209 7210
xAODTestReadDecor    INFO cinfo.dInt1_renamed: 54000
xAODTestReadDecor    INFO cinfo.dInt1_renamedBase: 54001
xAODTestReadDecor    INFO cinfo.dInt1_renamed: 54000
AthenaEventLoopMgr   INFO   ===>>>  done processing event #17, run #0 17 events processed so far  <<<===
AthenaEventLoopMgr   INFO   ===>>>  start processing event #18, run #0 17 events processed so far  <<<===
xAODTestReadCVec     INFO cvec_renamed aux items: aFloat anInt anInt2 cEL dInt1_renamed dVar1 
xAODTestReadCVec     INFO Type of aux store: DMTest::CAuxContainer_v1
xAODTestReadCVec     INFO  anInt1 1901 aFloat: 3800 anInt2: 5701 dVar1: 8551 cEL: cvec_renamed[9]

xAODTestReadCVec     INFO  anInt1 1902 aFloat: 3800.1 anInt2: 5702 dVar1: 8552 cEL: cvec_renamed[8]

xAODTestReadCVec     INFO  anInt1 1903 aFloat: 3800.2 anInt2: 5703 dVar1: 8553 cEL: cvec_renamed[7]

xAODTestReadCVec     INFO  anInt1 1904 aFloat: 3800.3 anInt2: 5704 dVar1: 8554 cEL: cvec_renamed[6]

xAODTestReadCVec     INFO  anInt1 1905 aFloat: 3800.4 anInt2: 5705 dVar1: 8555 cEL: cvec_renamed[5]

xAODTestReadCVec     INFO  anInt1 1906 aFloat: 3800.5 anInt2: 5706 dVar1: 8556 cEL: cvec_renamed[4]

xAODTestReadCVec     INFO  anInt1 1907 aFloat: 3800.6 anInt2: 5707 dVar1: 8557 cEL: cvec_renamed[3]

xAODTestReadCVec     INFO  anInt1 1908 aFloat: 3800.7 anInt2: 5708 dVar1: 8558 cEL: cvec_renamed[2]

xAODTestReadCVec     INFO  anInt1 1909 aFloat: 3800.8 anInt2: 5709 dVar1: 8559 cEL: cvec_renamed[1]

xAODTestReadCVec     INFO  anInt1 1910 aFloat: 3800.9 anInt2: 5710 dVar1: 8560 cEL: cvec_renamed[0]

xAODTestReadDecor    INFO cvec_renamed.dInt1_renamed: 7601 7602 7603 7604 7605 7606 7607 7608 7609 7610
xAODTestReadDecor    INFO cinfo.dInt1_renamed: 57000
xAODTestReadDecor    INFO cinfo.dInt1_renamedBase: 57001
xAODTestReadDecor    INFO cinfo.dInt1_renamed: 57000
AthenaEventLoopMgr   INFO   ===>>>  done processing event #18, run #0 18 events processed so far  <<<===
AthenaEventLoopMgr   INFO   ===>>>  start processing event #19, run #0 18 events processed so far  <<<===
xAODTestReadCVec     INFO cvec_renamed aux items: aFloat anInt anInt2 cEL dInt1_renamed dVar1 
xAODTestReadCVec     INFO Type of aux store: DMTest::CAuxContainer_v1
xAODTestReadCVec     INFO  anInt1 2001 aFloat: 4000 anInt2: 6001 dVar1: 9001 cEL: cvec_renamed[9]

xAODTestReadCVec     INFO  anInt1 2002 aFloat: 4000.1 anInt2: 6002 dVar1: 9002 cEL: cvec_renamed[8]

xAODTestReadCVec     INFO  anInt1 2003 aFloat: 4000.2 anInt2: 6003 dVar1: 9003 cEL: cvec_renamed[7]

xAODTestReadCVec     INFO  anInt1 2004 aFloat: 4000.3 anInt2: 6004 dVar1: 9004 cEL: cvec_renamed[6]

xAODTestReadCVec     INFO  anInt1 2005 aFloat: 4000.4 anInt2: 6005 dVar1: 9005 cEL: cvec_renamed[5]

xAODTestReadCVec     INFO  anInt1 2006 aFloat: 4000.5 anInt2: 6006 dVar1: 9006 cEL: cvec_renamed[4]

xAODTestReadCVec     INFO  anInt1 2007 aFloat: 4000.6 anInt2: 6007 dVar1: 9007 cEL: cvec_renamed[3]

xAODTestReadCVec     INFO  anInt1 2008 aFloat: 4000.7 anInt2: 6008 dVar1: 9008 cEL: cvec_renamed[2]

xAODTestReadCVec     INFO  anInt1 2009 aFloat: 4000.8 anInt2: 6009 dVar1: 9009 cEL: cvec_renamed[1]

xAODTestReadCVec     INFO  anInt1 2010 aFloat: 4000.9 anInt2: 6010 dVar1: 9010 cEL: cvec_renamed[0]

xAODTestReadDecor    INFO cvec_renamed.dInt1_renamed: 8001 8002 8003 8004 8005 8006 8007 8008 8009 8010
xAODTestReadDecor    INFO cinfo.dInt1_renamed: 60000
xAODTestReadDecor    INFO cinfo.dInt1_renamedBase: 60001
xAODTestReadDecor    INFO cinfo.dInt1_renamed: 60000
AthenaEventLoopMgr   INFO   ===>>>  done processing event #19, run #0 19 events processed so far  <<<===
AthenaEventLoopMgr   INFO   ===>>>  start processing event #20, run #0 19 events processed so far  <<<===
xAODTestReadCVec     INFO cvec_renamed aux items: aFloat anInt anInt2 cEL dInt1_renamed dVar1 
xAODTestReadCVec     INFO Type of aux store: DMTest::CAuxContainer_v1
xAODTestReadCVec     INFO  anInt1 2101 aFloat: 4200 anInt2: 6301 dVar1: 9451 cEL: cvec_renamed[9]

xAODTestReadCVec     INFO  anInt1 2102 aFloat: 4200.1 anInt2: 6302 dVar1: 9452 cEL: cvec_renamed[8]

xAODTestReadCVec     INFO  anInt1 2103 aFloat: 4200.2 anInt2: 6303 dVar1: 9453 cEL: cvec_renamed[7]

xAODTestReadCVec     INFO  anInt1 2104 aFloat: 4200.3 anInt2: 6304 dVar1: 9454 cEL: cvec_renamed[6]

xAODTestReadCVec     INFO  anInt1 2105 aFloat: 4200.4 anInt2: 6305 dVar1: 9455 cEL: cvec_renamed[5]

xAODTestReadCVec     INFO  anInt1 2106 aFloat: 4200.5 anInt2: 6306 dVar1: 9456 cEL: cvec_renamed[4]

xAODTestReadCVec     INFO  anInt1 2107 aFloat: 4200.6 anInt2: 6307 dVar1: 9457 cEL: cvec_renamed[3]

xAODTestReadCVec     INFO  anInt1 2108 aFloat: 4200.7 anInt2: 6308 dVar1: 9458 cEL: cvec_renamed[2]

xAODTestReadCVec     INFO  anInt1 2109 aFloat: 4200.8 anInt2: 6309 dVar1: 9459 cEL: cvec_renamed[1]

xAODTestReadCVec     INFO  anInt1 2110 aFloat: 4200.9 anInt2: 6310 dVar1: 9460 cEL: cvec_renamed[0]

xAODTestReadDecor    INFO cvec_renamed.dInt1_renamed: 8401 8402 8403 8404 8405 8406 8407 8408 8409 8410
xAODTestReadDecor    INFO cinfo.dInt1_renamed: 63000
xAODTestReadDecor    INFO cinfo.dInt1_renamedBase: 63001
xAODTestReadDecor    INFO cinfo.dInt1_renamed: 63000
AthenaEventLoopMgr   INFO   ===>>>  done processing event #20, run #0 20 events processed so far  <<<===
xaoddata.root        INFO Database being retired...
Domain[ROOT_All]     INFO ->  Deaccess DbDatabase   READ      [ROOT_All] 1458DB6A-ABD2-354E-9CA6-D2B33C406B3C
ApplicationMgr       INFO Application Manager Stopped successfully
LoadReadDicts        INFO Finalizing LoadReadDicts...
Domain[ROOT_All]     INFO >   Deaccess DbDomain     READ      [ROOT_All] 
AthenaPoolCnvSvc     INFO PerfStats ----------------------------------------
AthenaPoolCnvSvc     INFO PerfStats Timing Measurements for AthenaPoolCnvSvc
AthenaPoolCnvSvc     INFO PerfStats ----------------------------------------
AthenaPoolCnvSvc     INFO PerfStats | cObjR_ALL       |              16 ms |
AthenaPoolCnvSvc     INFO PerfStats | cObj_ALL        |              69 ms |
AthenaPoolCnvSvc     INFO PerfStats ----------------------------------------
PyComponentMgr       INFO Finalizing PyComponentMgr...
ApplicationMgr       INFO Application Manager Finalized successfully
ApplicationMgr       INFO Application Manager Terminated successfully
Py:Athena            INFO leaving with code 0: "successful run"
